…
The years are also a coded variable.

``` r
summary_purpose_year = summary_purpose_year |>
  mutate(purpose_old = haven::as_factor(purpose_old),
         dyear = haven::as_factor(dyear))
summary_purpose_year
```

    ## # A tibble: 74 × 4
    ##    purpose_old                           dyear                Trips   Split
    ##    <fct>                                 <fct>                <dbl>   <dbl>
    ##  1 Place of work                         2014 dataset/script 102.   0.352  
    ##  2 Shopping                              2014 dataset/script  32.3  0.112  
    ##  3 Other - not coded                     2014 dataset/script  21.7  0.0753 
    ##  4 Go home                               2014 dataset/script  31.7  0.110  
    ##  5 Partcipipating in sport               2014 dataset/script  58    0.201  
    ##  6 Entertainment/other public activities 2014 dataset/script   0.75 0.00260
    ##  7 visiting Friends or relatives         2014 dataset/script  15.3  0.0529 
    ##  8 Other personal business               2014 dataset/script   1.04 0.00360
    ##  9 Just go for a walk                    2014 dataset/script   1.44 0.00499
    ## 10 Educational establishment             2014 dataset/script  21.7  0.0753 
    ## # ℹ 64 more rows
…
## Temporal Distribution of trips

Using the start time when the recorded trips (`journeystart_hh`), we can
build an hourly profile of the trips.

``` r
hourly_summary = data_bicycle |> 
  summarise(Trips = sum(trav_wt),
            .by = c(journeystart_hh))
hourly_summary
```

    ## # A tibble: 25 × 2
    ##    journeystart_hh Trips
    ##              <dbl> <dbl>
    ##  1               8 144. 
    ##  2              17 166. 
    ##  3               9  77.0
    ##  4               6  37.2
    ##  5               7 109. 
    ##  6              15 120. 
    ##  7              16 130. 
    ##  8              12  80.7
    ##  9              13  71.6
    ## 10              11  85.8
    ## # ℹ 15 more rows
…
We can also produce the same analysis by trip purpose.

``` r
hourly_summary_purpose = data_bicycle |> 
  summarise(Trips = sum(trav_wt),
            .by = c(journeystart_hh,purpose_old)) |> 
  mutate(purpose_old = haven::as_factor(purpose_old))
  
hourly_summary_purpose
```

    ## # A tibble: 184 × 3
    ##    journeystart_hh purpose_old              Trips
    ##              <dbl> <fct>                    <dbl>
    ##  1               8 Place of work           102.  
    ##  2              17 Place of work            81.2 
    ##  3               9 Shopping                 10.3 
    ##  4               6 Other - not coded         3.86
    ##  5               7 Other - not coded         3.86
    ##  6              15 Other - not coded         2.13
    ##  7              16 Go home                  21.1 
    ##  8              12 Partcipipating in sport  36.7 
    ##  9              13 Go home                   8.89
    ## 10              11 Place of work            11.0 
    ## # ℹ 174 more rows
…
